module attc_client

go 1.18

require (
	github.com/gin-gonic/gin v1.8.1
	github.com/hyperledger/fabric-sdk-go v1.0.0
)

require (
	github.com/Knetic/govaluate v3.0.0+incompatible // indirect
	github.com/beorn7/perks v1.0.1 // indirect
	github.com/cloudflare/cfssl v1.4.1 // indirect
	github.com/davecgh/go-spew v1.1.1 // indirect
	github.com/fsnotify/fsnotify v1.4.7 // indirect
	github.com/gin-contrib/sse v0.1.0 // indirect
	github.com/go-kit/kit v0.8.0 // indirect
	github.com/go-logfmt/logfmt v0.4.0 // indirect
	github.com/go-playground/locales v0.14.0 // indirect
	github.com/go-playground/universal-translator v0.18.0 // indirect
	github.com/go-playground/validator/v10 v10.10.0 // indirect
	github.com/goccy/go-json v0.9.7 // indirect
	github.com/golang/mock v1.4.3 // indirect
	github.com/golang/protobuf v1.5.0 // indirect
	github.com/google/certificate-transparency-go v1.0.21 // indirect
	github.com/hashicorp/hcl v1.0.0 // indirect
	github.com/hyperledger/fabric-config v0.0.5 // indirect
	github.com/hyperledger/fabric-lib-go v1.0.0 // indirect
	github.com/hyperledger/fabric-protos-go v0.0.0-20200707132912-fee30f3ccd23 // indirect
	github.com/json-iterator/go v1.1.12 // indirect
	github.com/kr/logfmt v0.0.0-20140226030751-b84e30acd515 // indirect
	github.com/leodido/go-urn v1.2.1 // indirect
	github.com/magiconair/properties v1.8.1 // indirect
	github.com/mattn/go-isatty v0.0.14 // indirect
	github.com/matttproud/golang_protobuf_extensions v1.0.1 // indirect
	github.com/mitchellh/mapstructure v1.3.2 // indirect
	github.com/modern-go/concurrent v0.0.0-20180306012644-bacd9c7ef1dd // indirect
	github.com/modern-go/reflect2 v1.0.2 // indirect
	github.com/pelletier/go-toml v1.8.0 // indirect
	github.com/pelletier/go-toml/v2 v2.0.1 // indirect
	github.com/pkg/errors v0.8.1 // indirect
	github.com/pmezard/go-difflib v1.0.0 // indirect
	github.com/prometheus/client_golang v1.1.0 // indirect
	github.com/prometheus/client_model v0.0.0-20190812154241-14fe0d1b01d4 // indirect
	github.com/prometheus/common v0.6.0 // indirect
	github.com/prometheus/procfs v0.0.3 // indirect
	github.com/spf13/afero v1.3.1 // indirect
	github.com/spf13/cast v1.3.1 // indirect
	github.com/spf13/jwalterweatherman v1.1.0 // indirect
	github.com/spf13/pflag v1.0.5 // indirect
	github.com/spf13/viper v1.1.1 // indirect
	github.com/stretchr/testify v1.7.1 // indirect
	github.com/ugorji/go/codec v1.2.7 // indirect
	github.com/weppos/publicsuffix-go v0.5.0 // indirect
	github.com/zmap/zcrypto v0.0.0-20190729165852-9051775e6a2e // indirect
	github.com/zmap/zlint v0.0.0-20190806154020-fd021b4cfbeb // indirect
	golang.org/x/crypto v0.0.0-20210711020723-a769d52b0f97 // indirect
	golang.org/x/net v0.0.0-20210226172049-e18ecbb05110 // indirect
	golang.org/x/sys v0.0.0-20210806184541-e5e7981a1069 // indirect
	golang.org/x/text v0.3.6 // indirect
	google.golang.org/genproto v0.0.0-20190819201941-24fa4b261c55 // indirect
	google.golang.org/grpc v1.29.1 // indirect
	google.golang.org/protobuf v1.28.0 // indirect
	gopkg.in/yaml.v2 v2.4.0 // indirect
	gopkg.in/yaml.v3 v3.0.0-20210107192922-496545a6307b // indirect
)
